INDEX VERSION 1.131+D:\SeleniumAutomatedProject\Academy_testing\.metadata\.plugins\org.eclipse.jdt.core
1288952122.index
1365826733.index
3011630815.index
19225145.index
365919034.index
1682071935.index
1992783460.index
681567811.index
1614672718.index
2280910790.index
2296471409.index
3329913901.index
2712576480.index
226535786.index
3075034496.index
3040431178.index
2850561743.index
3515582685.index
2144247598.index
2601093367.index
3159783285.index
3231643612.index
4046747612.index
2261096136.index
704040643.index
1547105710.index
79951037.index
1639911470.index
3945979898.index
3904273516.index
1346436186.index
1363402332.index
2672061847.index
2988240431.index
288428257.index
4217444516.index
2849380711.index
430568353.index
2591463490.index
1824699594.index
2110544237.index
3895409705.index
2913459141.index
822302209.index
207714334.index
1606398961.index
3717309912.index
1525053807.index
3817871582.index
3269146370.index
1465582332.index
2680451886.index
1652755004.index
2028574565.index
1626650170.index
1731392530.index
3831924180.index
860406086.index
1972460744.index
2819347952.index
2350641112.index
2224055674.index
3250196587.index
1429966037.index
461918525.index
3954077946.index
2460869794.index
410947137.index
33155.index
3444770466.index
1461942026.index
2935727967.index
1537032907.index
1301519202.index
2420041715.index
1710719997.index
1305282347.index
1898106406.index
1159641786.index
934139863.index
2633435582.index
1692233810.index
620826537.index
3775824979.index
2478779191.index
4212507020.index
3661145574.index
1792502578.index
89279547.index
3347683515.index
396922365.index
2170057204.index
2568312840.index
125352030.index
4176983588.index
3411862904.index
1657193297.index
24419017.index
1019530930.index
4223532532.index
366908629.index
2290534899.index
153268835.index
3908509509.index
1365884391.index
4214011823.index
3559778899.index
3296906568.index
4034161571.index
2731695543.index
3683942160.index
836326175.index
4080574079.index
3943542766.index
2466831107.index
1166751788.index
4000532395.index
1375952091.index
3809948551.index
3589497332.index
2888733749.index
253027804.index
1787804438.index
2328435690.index
2953023701.index
2168379840.index
2281091586.index
2666121304.index
1107074892.index
608949205.index
1982867480.index
2647171695.index
2181666946.index
2378650843.index
3588150296.index
2728380891.index
1022282104.index
3210266625.index
966965166.index
3931792508.index
1820549812.index
985510785.index
519373531.index
114662525.index
2452877381.index
2448073308.index
4220811868.index
4184558356.index
683561719.index
349002130.index
669838076.index
2751963582.index
3230862386.index
3568539966.index
270074960.index
2834629622.index
2559471111.index
726111747.index
3890811474.index
2464413622.index
244153155.index
3653661053.index
168475353.index
687418411.index
207855924.index
458428142.index
3452833292.index
3811799051.index
30253470.index
3745182381.index
4043631653.index
1073449282.index
3806709857.index
567097366.index
1499271569.index
4038212145.index
1197052116.index
3634901307.index
3168476869.index
1703462925.index
1229104185.index
497120060.index
3707559099.index
2473279521.index
2207342208.index
2484582066.index
2725502096.index
1254224514.index
1612415935.index
150223791.index
2308498073.index
2181215722.index
142884640.index
4010727911.index
3220348572.index
637824230.index
2766460946.index
1141740280.index
1745176885.index
3834621695.index
1764603836.index
675920653.index
2508929818.index
1763042882.index
317131036.index
1427741190.index
905720395.index
1407307066.index
170939325.index
1832025150.index
4120421983.index
865007691.index
3454434691.index
438682729.index
1062673912.index
3029514497.index
158829488.index
1767097045.index
1672436227.index
1108276295.index
1525984292.index
612881327.index
51868540.index
2603356538.index
3400302026.index
3687343299.index
1587308409.index
2810086672.index
3288167261.index
997669421.index
256068258.index
629816615.index
454256465.index
1223221114.index
3298395297.index
1324127082.index
2129681089.index
355711456.index
1882233998.index
3648587930.index
2006736583.index
1022178164.index
1582446599.index
1628261641.index
1711207343.index
1227267221.index
2927719385.index
1865797976.index
3952008545.index
1626281254.index
373829714.index
3448411452.index
1859660874.index
3996333129.index
4143750220.index
1088821731.index
1413584087.index
3132922734.index
2652200183.index
3649805715.index
2581614145.index
3394840051.index
2159395705.index
1237389511.index
